{
  "builders": [{
    "type": "virtualbox-ovf",
    "source_path": "./packer-vbox-build/ubuntu-xenial-stage1.ovf",
    "ssh_username": "vagrant",
    "ssh_password": "vagrant",

    "guest_additions_mode": "disable",
    "headless": "{{ user `headless`}}",
    "shutdown_command": "echo 'vagrant' | sudo -S shutdown -P now"
  }],


  "provisioners": [

    {
      "type": "file",
      "source": "{{user `binaries`}}/spark/",
      "destination": "/tmp"
    },
    
    {
      "type": "shell",
      "environment_vars": [
	"HOME_DIR=/home/vagrant",
	"APT_HTTP_PROXY={{user `apt_http_proxy`}}",
	"APT_HTTPS_PROXY={{user `apt_https_proxy`}}",
	"APT_USE_PROXY={{user `apt_use_proxy`}}",

	"SPARK_VERSION={{user `spark_version`}}",
	"HADOOP_VERSION={{user `hadoop_version`}}",
	"ZEPPELIN_VERSION={{user `zeppelin_version`}}"
      ],
      "scripts": [
	"scripts/stage2/java.sh",
	"scripts/stage2/spark.sh",
	"scripts/stage2/zeppelin.sh",
	
	"scripts/stage2/clean_after_apt.sh",
	"scripts/minimize.sh"
      ],
      "execute_command": "echo 'vagrant' | {{.Vars}} sudo -S -E sh -eux '{{.Path}}'"
    }
  ],

  "post-processors": [
    [
      {
	"output": "builds/ubuntu-xenial-spark-zeppelin.box",
	"type": "vagrant",
	"compression_level": 6
      },

      {
	"type": "vagrant-cloud",
	"box_tag": "hackstreet/spark-zeppelin",
	"access_token": "{{ user `token` }}",

	"version": "0.0.1",
	"version_description": "Apache Spark standalone + Apache Zeppelin, suitable for learning spark.\nFor more information on how to use this box, visit the documentation at https://hackstreet.gitlab.io/documentation/vagrants/spark-zeppelin"

      }
    ]
  ],

  "variables": {
    "apt_use_proxy": "false",
    "apt_http_proxy": "",
    "apt_https_proxy": "",

    "binaries": "/home/mukund/iso",
    "spark_version": "2.1.1",
    "hadoop_version": "2.7",
    "zeppelin_version": "0.7.2",

    "token": "{{env `VAGRANT_CLOUD_TOKEN`}}",
    
    "headless": "true"
  }
}
